{
	"name": "combatready-redux",
	"title": "Combat Ready! Redux",
	"description": "'<b><i>My Combat Tracker is Ready</i></b>' Combat ready indicator to remind players of their turn, as well as time taken. ",
	"version": "1.1.8",
	"author": "Ken L. maintained by Shawn Milligan [n3rf_herder#9026], Modified by Miriadis",
	"socket": true,
	"languages": [
		{
			"lang": "en",
			"name": "English",
			"path": "lang/en.json"
		},
		{
			"lang": "ja",
			"name": "日本語 (Japanese)",
			"path": "lang/ja.json"
		},
		{
			"lang": "ko",
			"name": "한국어 (Korean)",
			"path": "lang/ko.json"
		},
		{
			"lang": "pt-BR",
			"name": "Português (Brasil)",
			"path": "lang/pt-BR.json"
		},
		{
			"lang": "fr",
			"name": "Français (French)",
			"path": "lang/fr.json"
		},
		{
			"lang": "nl",
			"name": "Nederlands (Dutch)",
			"path": "lang/nl.json"
		},
		{
			"lang": "it",
			"name": "Italiano (Italian)",
			"path": "lang/it.json"
		},
		{
			"lang": "zh-SHAN",
			"name": "简体中文 (Chinese [Simplified])",
			"path": "lang/zh-SHAN.json"
		}
	],
	"esmodules": [
		"greensock/dist/TweenMax.min.js",
		"combatready.js"
	],
	"styles" : ["combatready.css"],
	"packs": [],
	"url" : "https://gitlab.com/the-stash/combat-ready-redux",
	"download" : "https://gitlab.com/the-stash/combat-ready-redux/-/archive/v1.1.8/combat-ready-redux-v1.1.8.zip",
	"manifest" : "https://gitlab.com/the-stash/combat-ready-redux/-/raw/master/module.json",
	"minimumCoreVersion": "0.6.0",
	"compatibleCoreVersion": "0.7.5"
}
